{
    "form": {
        "fallback_info": {
            "url": ""
        },
        "fields": [
                   {
                   "enabled": 1,
                   "required": 0,
                   "field_id": "switch0123",
                   "caption": "Interested in Sports",
                   "key": "user_interest",
                   "type": "SWSwitchCell",
                   "attributes": {
                   "text_alignment": 1,
                   "on_tintColor": "#BFBEBD",
                   "switch_tintColor": "#BFBEBD",
                   "cell_height": 80,
                   "off_image": "",
                   "switch_BgColor": "#FFFFFF",
                   "label_class": "h3",
                   "thum_tintColor": "#BDBDBD",
                   "on_image": "", 
                   "defaultState": 1, 
                   "label_color": "#0A0A2A"
                   }, 
                   "placeholder": "", 
                   "order": 1
                   },
                   {
                   "enabled": 1,
                   "required": 1,
                   "field_id": "segment0123",
                   "caption": "Gender",
                   "key": "user_gender",
                   "type": "SWSegmentCell",
                   "attributes": {
                   "text_alignment": 1,
                   "cell_height": 80,
                   "segment_style": 0,
                   "label_class": "h3",
                   "titles": [
                              {
                              "image": "",
                              "title": "Male"
                              },
                              {
                              "image": "",
                              "title": "Female"
                              },
                              {
                              "image": "",
                              "title": "Not Disclose"
                              }
                              ], 
                   "segment_tintColor": "#BFBEBD", 
                   "no_segments": 4, 
                   "defaultSelectedItemIndex": 1, 
                   "label_color": "#0A0A2A", 
                   "segment_BgColor": "#FFFFFF"
                   }, 
                   "placeholder": "", 
                   "order": 2
                   },
                   {
                   "type": "SWTextViewCell",
                   "required": 0,
                   "field_id": "tv0123",
                   "caption": "Terms and Conditions",
                   "key": "user_terms",
                   "attributes": {
                   "cell_height": 200,
                   "text_alignment": 1,
                   "label_class": "h3",
                   "textView_class": "h4",
                   "textView_BgColor": "#FFFFFF",
                   "label_color": "#0A0A2A"
                   },
                   "placeholder": "Welcome to our website. If you continue to browse and use this website, you are agreeing to comply with and be bound by the following terms and conditions of use, which together with our privacy policy govern [business name]'s relationship with you in relation to this website. If you disagree with any part of these terms and conditions, please do not use our website.\n \n The term '[business name]' or 'us' or 'we' refers to the owner of the website whose registered office is [address]. Our company registration number is [company registration number and place of registration]. The term 'you' refers to the user or viewer of our website.",
                   "order": 3,
                   "enabled": 0,
                   "keyboard_type": 1
                   },
                   {
                   "enabled": 1,
                   "required": 1,
                   "field_id": "bt0123",
                   "caption": "Accept Terms and Conditions",
                   "key": "user_selected_terms",
                   "type": "SWButtonCell",
                   "attributes": {
                   "text_alignment": 1,
                   "btn_text_BgColor": "#FFFFFF",
                   "cell_height": 80,
                   "btn_text_color": "#FAAFAA",
                   "label_class": "h3",
                   "label_color": "#0A0A2A"
                   }, 
                   "placeholder": "",
                   "order": 4
                   }
        ],
        "form_id": "Form1424",
        "navigation_info": {
            "url": "",
            "button_title": "Submit",
            "action_type": "Submit"
        }, 
        "title_info": {
            "footer": "This section is very imprtant", 
            "heading": "Personal Information", 
            "Description": "This is the description right below the header"
        }
    }
}